government = tribal
add_government_reform = greentide_horde
government_rank = 1
primary_culture = green_orc
religion = great_dookan
technology_group = tech_orcish
capital = 3030

1422.7.19 = {
	monarch = {
		name = "Gordak"
		dynasty = "Cursed Howl"
		birth_date = 1402.5.1
		adm = 3
		dip = 1
		mil = 5
	}
	add_ruler_personality = bold_fighter_personality
	add_ruler_personality = tactical_genius_personality
	heir = {
		name = "Mobrag"
		dynasty = "Cursed Howl"
		birth_date = 1420.5.12
		death_date = 1470.3.10
		claim = 95
		adm = 4
		dip = 1
		mil = 4
	}
	add_heir_personality = bold_fighter_personality
	queen = {
		country_of_origin = I43
		dynasty = "Silentblade"
		name = "Urda"
		birth_date = 1405.1.15
		death_date = 1459.9.1
		female = yes
		adm = 2
		dip = 1
		mil = 3
	}
}