######################################################################
# Goblin Tide rebel
######################################################################
goblin_tide_rebel = {

	color = { 50 85 210 }

	area = nation 					# Stays within the nation
	government = any	
	defection = none				# Does not defect
	independence = none				# Does not strive for independence
	gfx_type = culture_province
	
	resilient = yes
	reinforcing = yes
	general = yes
	smart = yes
	unit_transfer = yes
	will_relocate = yes
	
	artillery = 0.3
	infantry = 0.7
	cavalry = 0
	
	morale = 0.75
	
	# Possible handle actions
	handle_action_negotiate = no
	handle_action_stability = no
	handle_action_build_core = no
	handle_action_send_missionary = no
	
	# The rebel type with the highest modifier for this province gets picked
	spawn_chance = {
		factor = 0
	}
 
 	# This is checked for EACH province in the Area of Operations
	movement_evaluation = {
		factor = 1
		modifier = {
			factor = 0.1
			units_in_province = 1
		}
		modifier = {
			factor = 0.001
			controlled_by = REB
		}
		modifier = {
			factor = 10
			is_capital = yes
		}
		modifier = {
			factor = 1.5
			unrest = 2
		}
		modifier = {
			factor = 1.5
			unrest = 4
		}
		modifier = {
			factor = 1.5
			unrest = 6
		}
	}
 
 	# Province Scope
 	siege_won_trigger = {
		always = yes
 	}
	siege_won_effect = {
		if = {
			limit = { has_province_flag = old_gate_flag }
			add_permanent_province_modifier = {
				name = old_gate
				duration = -1
			}
		}
		hidden_effect = { add_devastation = 5 }
		if = {
			limit = { has_province_modifier = ruined_hold }
			remove_province_modifier = ruined_hold
			remove_province_modifier = hold_being_restored
			add_permanent_province_modifier = {
				name = infested_hold
				duration = -1
			}
		}
		add_permanent_province_modifier = {
			name = devasted_province
			duration = 1095
		}
		if = {
			limit = { has_province_modifier = restored_rail }
			random = {
				chance = 30
				
				remove_province_modifier = restored_rail
				add_permanent_province_modifier = {
					name = dwarovar_rail
					duration = -1
				}
			}
		}
	}
	
	# Country scope
	can_negotiate_trigger = {
		always = no
	}
	
	# Country scope
	can_enforce_trigger = {
		always = yes
	}
	
	# Localisation for their demands
	demands_description = "goblin_tide_demand"
	
	# Country Scope	
	demands_enforced_effect = {
		every_owned_province = {
			remove_province_modifier = old_hold
			remove_province_modifier = old_gate
		}
		add_prestige = -100
		add_years_of_income = -10
		add_stability = -3
		hidden_effect = { set_country_flag = lost_goblin }
	}
}
