######################################################################
# Sardonyx
######################################################################
sardonyx_rebels = {

	color = { 25 180 25 }

	area = nation			# Stays within provinces of their rebel tag
	government = any				# No special preference
	defection = none			# If the country seeks independence, defection specifies what type of provinces it wants.
	independence = none 		# Seeks independence for spawn province culture. Will not spawn at all if there is no suitable tag.
	defect_delay = 60				# Can spontaneously declare independence after 60 months (earliest)
	unit_transfer = yes				# Units switch allegiance after enforcing demands.
	gfx_type = culture_province	
	will_relocate = yes	
	
	resilient = yes
	reinforcing = yes
	general = yes				
	smart = yes
	
	artillery = 0.3
	infantry = 0.7
	cavalry = 0
	
	morale = 1.3

	# Possible handle actions
	handle_action_negotiate = yes
	handle_action_stability = yes
	handle_action_build_core = yes
	handle_action_send_missionary = yes		
	handle_action_change_culture = yes
	
	# The rebel type with the highest modifier for this province gets picked
	spawn_chance = {
		factor = 0
	}
 
 	# This is checked for EACH province in the Area of Operations
	movement_evaluation = {
		factor = 1
		modifier = {
			factor = 0.1
			units_in_province = 1
		}
		modifier = {
			factor = 0.001
			controlled_by = REB
		}
		modifier = {
			factor = 1.5
			unrest = 2
		}
		modifier = {
			factor = 1.5
			unrest = 4
		}
		modifier = {
			factor = 1.5
			unrest = 6
		}
	}
 
 	# Province Scope
 	siege_won_trigger = {
 		always = yes
 	}
	siege_won_effect = {
		if = {
			limit = { NOT = { is_core = H94 } }
			add_core = H94
		}
		add_nationalism = 10 # Add ten extra years of nationalism
	}
	
	# Country scope
	can_negotiate_trigger = {
		is_at_war = no
	}
	
	# Country scope
	can_enforce_trigger = {
		always = yes
	}
	
	# Localisation for their demands
	demands_description = "sardonyx_rebels_demand"
	
	# Country scope
	demands_enforced_effect = {
		add_prestige = -50
		add_stability = -3
		if = {
			limit = {
				exists = H94
			}
			every_owned_province = {
				limit = {
					has_rebel_faction = H94
					culture = H94
				}
				if = {
					limit = { NOT = { is_core = H94 } }
					add_core = H94
				}			
				cede_province = H94
			}			
		}
	}
}
