#130 - Istria

owner = A01
controller = A01
add_core = A01
add_core = A67
culture = redfoot_halfling
religion = regent_court
hre = no
base_tax = 1
base_production = 2
trade_goods = grain
base_manpower = 3
capital = "" 
is_city = yes








