#187 - Barrois | 

owner = A27
controller = A27
add_core = A27
culture = bluescale_kobold
religion = kobold_dragon_cult

hre = no

base_tax = 1
base_production = 1
base_manpower = 1

trade_goods = copper

capital = ""

is_city = yes









