#193 - Franche-Comte | 

owner = A24
controller = A24
add_core = A24
culture = moorman
religion = regent_court

hre = no

base_tax = 2
base_production = 2
base_manpower = 1

trade_goods = fish

capital = ""

is_city = yes









