#222 - Almeria |

owner = A13
controller = A13
add_core = A13
culture = gawedi
religion = regent_court

hre = no

base_tax = 5
base_production = 5
base_manpower = 3

trade_goods = iron

capital = ""

is_city = yes










add_permanent_province_modifier = {
	name = dwarven_minority_coexisting_small
	duration = -1
}