#238 - Essex
#+part of Cambridgeshire

owner = A46
controller = A46
add_core = A46
culture = arbarani
religion = regent_court

hre = yes

base_tax = 3
base_production = 3
base_manpower = 3

trade_goods = grain

capital = ""

is_city = yes






