#272 Lithuania

owner = A92
controller = A92
add_core = A92
culture = esmari
religion = regent_court

hre = yes

base_tax = 3
base_production = 3
base_manpower = 3

trade_goods = grain

capital = ""

is_city = yes







