# No previous file for Banten
owner = F46
controller = F46
add_core = F46
culture = desert_elf
religion = the_jadd

hre = no

base_tax = 1
base_production = 1
base_manpower = 2

trade_goods = incense

capital = ""

is_city = yes










