owner = A48
controller = A48
add_core = A48
add_core = A34
culture = wexonard
religion = regent_court

hre = yes

base_tax = 3
base_production = 3
base_manpower = 2

trade_goods = livestock

capital = ""

is_city = yes










