#466 - Sarai

owner = F01
controller = F01
add_core = F01
add_core = F04
culture = kheteratan
religion = khetist

hre = no

base_tax = 4
base_production = 6
base_manpower = 4

trade_goods = grain

capital = ""

is_city = yes










