# No previous file for Assam
owner = F29
controller = F29
add_core = F29
culture = east_sandfang_gnoll
religion = xhazobkult

hre = no

base_tax = 3
base_production = 2
base_manpower = 2

trade_goods = iron

capital = ""

is_city = yes









