#774

owner = B46
controller = B46
add_core = B46
culture = common_goblin
religion = goblinic_shamanism


base_tax = 3
base_production = 2
base_manpower = 2

trade_goods = livestock
center_of_trade = 1

capital = ""

is_city = yes

native_size = 78
native_ferocity = 5
native_hostileness = 10









