#913 - Gnollsgate

owner = A48
controller = A48
add_core = A48
add_core = A34
add_core = A49
culture = hill_gnoll
religion = xhazobkult

hre = yes

base_tax = 2
base_production = 2
base_manpower = 3

trade_goods = grain

capital = ""

is_city = yes











