A33_northern_missions_slot = {
	slot = 1
	generic = no
	ai = yes
	potential = {
		tag = A33
		
	}
	has_country_shield = yes

	A33_reclaim_the_loop = {
		icon = mission_hanseatic_city
		required_missions = { A33_to_wage_war }
		position = 2
		provinces_to_highlight = {
			OR = {
				area = menibor_loop_area
			}
			NOT = {
				country_or_non_sovereign_subject_holds = ROOT
			}
		}
		trigger = {
			menibor_loop_area = {
				type = all
				country_or_non_sovereign_subject_holds = ROOT
			}
		}
		effect = {
			middle_luna_area = {
				limit = {
					NOT = { is_core = ROOT }
					NOT = { owned_by = ROOT }
				}
				add_permanent_claim = ROOT
			}
			galeinn_area = {
				limit = {
					NOT = { is_core = ROOT }
					NOT = { owned_by = ROOT }
				}
				add_permanent_claim = ROOT
			}
			add_country_modifier = {
				name = "army_enthusiasm"
				duration = 7300
			}
		}
	}
	A33_up_the_luna = {
		icon = mission_landsknecht_soldier
		required_missions = { A33_reclaim_the_loop }
		position = 3
		provinces_to_highlight = {
			OR = {
				area = middle_luna_area
				area = galeinn_area
			}
			NOT = {
				country_or_non_sovereign_subject_holds = ROOT
			}
		}
		trigger = {
			middle_luna_area = {
				type = all
				country_or_non_sovereign_subject_holds = ROOT
			}
			galeinn_area = {
				type = all
				country_or_non_sovereign_subject_holds = ROOT
			}
		}
		effect = {
			upper_luna_area = {
				limit = {
					NOT = { is_core = ROOT }
					NOT = { owned_by = ROOT }
				}
				add_permanent_claim = ROOT
			}
			heartlands_area = {
				limit = {
					NOT = { is_core = ROOT }
					NOT = { owned_by = ROOT }
				}
				add_permanent_claim = ROOT
			}
			add_country_modifier = {
				name = "army_enthusiasm"
				duration = 7300
			}
		}
	}
	A33_eclipsing_the_moon = {
		icon = mission_unite_home_region
		required_missions = { A33_up_the_luna }
		position = 4
		provinces_to_highlight = {
			OR = {
				area = upper_luna_area
				area = heartlands_area
			}
			NOT = {
				country_or_non_sovereign_subject_holds = ROOT
			}
		}
		trigger = {
			upper_luna_area = {
				type = all
				country_or_non_sovereign_subject_holds = ROOT
			}
			heartlands_area = {
				type = all
				country_or_non_sovereign_subject_holds = ROOT
			}
		}
		effect = {
			add_country_modifier = {
				name = "verne_moon_eclipsed"
				duration = -1
			}
			east_dameshead_region = {
				limit = {
					NOT = { is_core = ROOT }
					NOT = { owned_by = ROOT }
				}
				add_permanent_claim = ROOT
			}
		}
	}
	A33_the_bounties_of_war = {
		icon = mission_war_chest
		required_missions = { }
		position = 5
		provinces_to_highlight = {
		}
		trigger = { 
			num_of_war_reparations = 8
		}
		effect = {
			add_adm_power = 400
			add_dip_power = 400
			add_mil_power = 400
		}
	}
	A33_west_diven_regatta = {
		icon = mission_establish_high_seas_navy
		required_missions = { }
		position = 6
		provinces_to_highlight = {
		OR = {
				province_id = 376
				province_id = 406
			}
		}
		trigger = { 
			is_year = 1523
			376 = {
				owned_by = ROOT
				has_building = shipyard
				has_building = dock
				development = 15
			}
			406 = {
				owned_by = ROOT
				has_building = shipyard
				has_building = dock
				development = 15
			}
		}
		effect = {
		add_country_modifier = {
				name = "verne_grand_regatta"
				duration = -1
			}
		}
	}
	A33_now_we_cannot_miss = {
		icon = mission_cannons_firing
		required_missions = { }
		position = 7
		provinces_to_highlight = {
		}
		trigger = {
			num_of_coalition_members = 8
		}
		effect = {
			add_country_modifier = {
				name = "verne_now_we_cannot_miss"
				duration = 7300
			}
		}
	}
}
A33_western_missions_slot = {
	slot = 2
	generic = no
	ai = yes
	potential = {
		tag = A33
	}
	has_country_shield = yes
	
	A33_to_wage_war = {
		icon = mission_teutonic_knights
		required_missions = { }
		position = 1
		provinces_to_highlight = {
		}
		trigger = {
			army_size_percentage = 0.8
		}
		effect = {
			define_general = {
				name = "Gelman the Unyielding"
				fire = 4
				shock = 8
				manuever = 4
				siege = 4
			}
			menibor_loop_area = {
				limit = {
					NOT = { is_core = ROOT }
					NOT = { owned_by = ROOT }
				}
				add_permanent_claim = ROOT
			}
			eastneck_area = {
				limit = {
					NOT = { is_core = ROOT }
					NOT = { owned_by = ROOT }
				}
				add_permanent_claim = ROOT
			}
			khenak_area = {
				limit = {
					NOT = { is_core = ROOT }
					NOT = { owned_by = ROOT }
				}
				add_permanent_claim = ROOT
			}
		}
	}
	A33_reclaim_eastneck = {
		icon = mission_pf_soldier
		required_missions = { A33_to_wage_war }
		position = 2
		provinces_to_highlight = {
			OR = {
				area = eastneck_area
			}
			NOT = {
				country_or_non_sovereign_subject_holds = ROOT
			}
		}
		trigger = {
			eastneck_area = {
				type = all
				country_or_non_sovereign_subject_holds = ROOT
			}
		}
		effect = {
			add_casus_belli = {
				target = A11
				type = cb_vassalize_mission
			}
			damespearl_area = {
				limit = {
					NOT = { is_core = ROOT }
					NOT = { owned_by = ROOT }
				}
				add_permanent_claim = ROOT
			}
			add_country_modifier = {
				name = "eng_channel_dominance"	#Its called Merchant Navy in-game
				duration = 5475
			}
		}
	}
	A33_clutching_pearls = {
		icon = mission_sea_battles
		required_missions = { A33_reclaim_eastneck }
		position = 3
		provinces_to_highlight = {
			OR = {
				area = damespearl_area
				area = pearlywine_area
			}
			NOT = {
				country_or_non_sovereign_subject_holds = ROOT
			}
		}
		trigger = {
			damespearl_area = {
				type = all
				country_or_non_sovereign_subject_holds = ROOT
			}
			NOT = {
				exists = A11
			}
		}
		effect = {
			14 = {
				add_permanent_province_modifier = {
					name = verne_dominate_the_approach
					duration = -1
				}
			}
			add_prestige = 50	
		}
	}
	A33_the_hunt_for_eggs = {
		icon = mission_invade_island
		required_missions = { A33_the_gnoll_question }
		position = 4
		provinces_to_highlight = {
		}
		trigger = {
			treasury = 400
			khenak_area = {
				type = all
				country_or_non_sovereign_subject_holds = ROOT
			}
		}
		effect = {
			country_event = { id = verne.4 }
		}
	}
	A33_build_the_sanctuary = {
		icon = mission_conquer_50_development
		required_missions = { A33_the_hunt_for_eggs }
		position = 5
		provinces_to_highlight = {
		}
		trigger = {
			has_country_modifier = verne_found_eggs
			OR = { 
				treasury = 600
				AND = { owns_core_province = 331
						treasury = 400 }
				}
		}
		effect = {
			country_event = { id = verne.10 }
		}
	}
	A33_reviving_the_wyverns = {
		icon = mission_italian_condottiere
		required_missions = { A33_build_the_sanctuary }
		position = 6
		provinces_to_highlight = {
		}
		trigger = {
			any_owned_province = {
				has_province_modifier = "verne_sanctuary"
			}
			OR = { ruler_has_personality = mage_personality
					advisor = court_mage }
		}
		effect = {
			add_country_modifier = {
				name = "verne_wyvern_riders"
				duration = -1
			}
			country_event = { id = verne.2 }
		}
	}
}

A33_divenhal_missions_slot = {
	slot = 3
	generic = no
	ai = yes
	potential = {
		tag = A33
	}
	has_country_shield = yes
	
	A33_clearing_khenak = {
		icon = mission_arabian_fort
		required_missions = { A33_to_wage_war }
		position = 2
		provinces_to_highlight = {
			OR = {
				area = khenak_area
			}
			NOT = {
				country_or_non_sovereign_subject_holds = ROOT
			}
		}
		trigger = {
			khenak_area = {
				type = all
				country_or_non_sovereign_subject_holds = ROOT
			}
		}
		effect = {
			add_prestige = 20
		}
	}
	A33_the_gnoll_question = {
		icon = mission_kowtow
		required_missions = { A33_clearing_khenak }
		position = 3
		provinces_to_highlight = {
		}
		trigger = {
			owns_core_province = 375
			owns_core_province = 377
			khenak_area = {
				type = all
				country_or_non_sovereign_subject_holds = ROOT
				religion = ROOT
			}
			OR = { khenak_area = {
					type = all
					country_or_non_sovereign_subject_holds = ROOT
					culture = ROOT
				}
				accepted_culture = hill_gnoll
			}
		}
		effect = {
			add_prestige = 20
			add_casus_belli = {
				target = F07
				type = cb_vassalize_mission
			}
			country_event = { id = verne.9 }
		}
	}
	A33_taming_the_dogs = {
		icon = mission_impaled_soldies
		required_missions = { A33_the_gnoll_question }
		position = 4
		provinces_to_highlight = {
		}
		trigger = {
			NOT = {
				exists = F07
			}
		}
		effect = {
			add_prestige = 40
			add_country_modifier = {
				name = "merchant_navy"
				duration = 9125 #25 years
			}
		}
	}
	A33_the_lai_peninsula = {
		icon = mission_great_wall
		required_missions = { A33_new_opportunities }
		position = 5
		provinces_to_highlight = {
		}
		trigger = {
			custom_trigger_tooltip = {
				tooltip = verne_lai_colony
				any_subject_country = {
					is_colonial_nation_of = A33
					capital_scope = { colonial_region = colonial_lai_peninsula }
					num_of_cities = 10
				}
			}
		}
		effect = {
			country_event = { id = verne.5 }
		}
	}
	A33_leechdens = {
		icon = mission_iberian_conquistador
		required_missions = { A33_the_lai_peninsula }
		position = 6
		provinces_to_highlight = {
		}
		trigger = {
			custom_trigger_tooltip = {
				tooltip = verne_leechdens_colony
				any_subject_country = {
					is_colonial_nation_of = A33
					capital_scope = { colonial_region = colonial_leechden }
					num_of_cities = 10
				}
			}
		}
		effect = {
			country_event = { id = verne.6 }
		}
	}
	A33_ruins_of_the_south = {
		icon = mission_invade_island
		required_missions = { A33_leechdens }
		position = 7
		provinces_to_highlight = {
		}
		trigger = {
			custom_trigger_tooltip = {
				tooltip = verne_soruin_colony
				any_subject_country = {
					is_colonial_nation_of = A33
					capital_scope = { colonial_region = colonial_soruin }
					num_of_cities = 10
				}
			}
		}
		effect = {
			add_country_modifier = {
				name = "colonial_enthusiasm"
				duration = 7300
			}
		}
	}
}

A33_colonial_missions_slot = {
	slot = 4
	generic = no
	ai = yes
	potential = {
		tag = A33
	}
	has_country_shield = yes
	
	A33_riding_the_waves = {
		icon = mission_junk_boat
		required_missions = { }
		position = 1
		provinces_to_highlight = {
		}
		trigger = {
			num_of_transport = 8
			num_of_light_ship = 10
		}
		effect = {
			define_admiral = {
				name = "Adrian of Stingport"
				fire = 4
				shock = 6
				manuever = 6
				siege = 4
			}
		}
	}
	A33_new_friends = {
		icon = mission_monarch_in_throne_room
		required_missions = { A33_riding_the_waves }
		position = 2
		provinces_to_highlight = {
		}
		trigger = {
			OR = {
				A47 = {
					alliance_with = ROOT
					has_opinion = {
					who = ROOT
					value = 190
					}
				}
				NOT = { 
					exists = A47
				}
			}
		}
		effect = {
			add_legitimacy = 40
			akan_isles_area = {
				limit = {
					NOT = { is_core = ROOT }
					NOT = { owned_by = ROOT }
				}
				add_permanent_claim = ROOT
			}
		}
	}
	A33_new_adventures = {
		icon = mission_conquer_5_states
		required_missions = { A33_new_friends }
		position = 3
		provinces_to_highlight = {
		}
		trigger = {
			has_idea_group = exploration_ideas
			has_idea = quest_for_the_new_world
		}
		effect = {
			country_event = { id = verne.1 }
			add_country_modifier = {
				name = "verne_new_adventures"
				duration = 3650
			}
		}
	}
	A33_new_opportunities = {
		icon = mission_colonial
		required_missions = { A33_new_adventures }
		position = 4
		provinces_to_highlight = {
		}
		trigger = {
			custom_trigger_tooltip = {
				tooltip = verne_endralliande_colony
				any_subject_country = {
					is_colonial_nation_of = A33
					capital_scope = { colonial_region = colonial_endralliande }
					num_of_cities = 10
				}
			}
		}
		effect = {
			country_event = { id = verne.8 }
		}
	}
	A33_take_the_isles = {
		icon = mission_galleys_in_port
		required_missions = { A33_new_opportunities }
		position = 5
		provinces_to_highlight = {
		}
		trigger = {
			custom_trigger_tooltip = {
				tooltip = verne_isles_colony
				any_subject_country = {
					is_colonial_nation_of = A33
					capital_scope = { colonial_region = colonial_isles }
					num_of_cities = 10
				}
			}
		}
		effect = {
			country_event = { id = verne.7 }
		}
	}
	A33_ruins_of_the_north = {
		icon = mission_cossack_cavalry
		required_missions = { A33_take_the_isles }
		position = 6
		provinces_to_highlight = {
		}
		trigger = {
			custom_trigger_tooltip = {
				tooltip = verne_noruin_colony
				any_subject_country = {
					is_colonial_nation_of = A33
					capital_scope = { colonial_region = colonial_noruin }
					num_of_cities = 10
				}
			}
		}
		effect = {
			add_country_modifier = {
				name = "colonial_enthusiasm"
				duration = 7300
			}
		}
	}
}	