wine_lord_missions = {
	slot = 5
	generic = yes
	ai = yes
	potential = {
		capital_scope = {
			OR = {
				area = upper_winebay_area
				area = lower_bloodwine_area
				area = eastern_winebay_area
				area = lower_winebay_area
			}
		}
	}
	wine_bay_fleet = {
		icon = mission_galleys_in_port
		required_missions = { }
		position = 1
		
		trigger = {
			num_of_light_ship = 10
			num_of_galley = 10
		}
		effect = {
			capital_scope = {
				add_base_tax = 2
				add_base_production = 4
				add_base_manpower = 2
			}
		}
	}
	
	wine_bay_trade = {
		icon = mission_high_income
		required_missions = { wine_bay_fleet }
		position = 2
		trigger = {
			home_trade_node = {
				is_strongest_trade_power = ROOT
			}
		}
		effect = {
			add_country_modifier = {
				name = "eng_channel_dominance"	#Its called Merchant Navy in-game
				duration = 5475
			}
		}
	}
}