country_decisions = {
	
	remove_corrupt_leadership = {
		major = yes
		potential = {
			has_disaster = hoardcurse
		}
		
		provinces_to_highlight = {
		}
		
		allow = {
			ruler_has_personality = greedy_personality
		}
		
		effect = {
			custom_tooltip = exile_greedy_ruler_tooltip
			hidden_effect = { country_event = { id = hoardcurse.100 } }
		}
		
		ai_will_do = {
			factor = 400
		}
	}
	
	##########
	#Crackdown
	##########
	crackdown_on_corrupts_officials = {
		major = yes
		potential = {
			has_disaster = hoardcurse
			NOT = { has_country_flag = hoardcurse_reforming }
			NOT = { has_country_modifier = crackdown_hoard_reform }
		}
		
		provinces_to_highlight = {
		}
		
		allow = {
			NOT = { ruler_has_personality = greedy_personality }
		}
		
		effect = {
			custom_tooltip = crackdown_hoard_reform_tooltip
			hidden_effect = { 
				set_country_flag = hoardcurse_reforming
				country_event = { id = hoardcurse.6 }
			}
		}
		
		ai_will_do = {
			factor = 400
		}
	}
	
	law_and_corruption_reforms = {
		major = yes
		potential = {
			has_disaster = hoardcurse
			has_country_flag = crackdown_hoard_reform #Gained at end of event chain
			NOT = { has_country_modifier = crackdown_hoard_reform }
		}
		
		provinces_to_highlight = {
		}
		
		allow = {
			adm_power = 150
		}
		
		effect = {
			add_years_of_income = -1
			add_adm_power = -150
			add_corruption = -15
			add_country_modifier = {
				name = crackdown_hoard_reform
				duration = -1
			}
			hidden_effect = { clr_country_flag = hoardcurse_reforming }
			hidden_effect = {
				change_variable = {
					which = variable:reformsHoard
					value = 1
				}
			}
		}
		
		ai_will_do = {
			factor = 400
		}
	}
	
	##########
	#Bank Decisions
	##########
	reforms_the_bank = {
		major = yes
		potential = {
			has_disaster = hoardcurse
			NOT = { has_country_flag = hoardcurse_reforming }
			NOT = { has_country_modifier = hoard_bank_reform }
		}
		
		provinces_to_highlight = {
		}
		
		allow = {
			NOT = { ruler_has_personality = greedy_personality }
		}
		
		effect = {
			custom_tooltip = hoard_bank_reform_tooltip
			hidden_effect = { 
				set_country_flag = hoardcurse_reforming
				country_event = { id = hoardcurse.9 }
			}
		}
		
		ai_will_do = {
			factor = 400
		}
	}
	
	print_new_currency = {
		major = yes
		potential = {
			has_disaster = hoardcurse
			has_country_flag = hoard_bank_reform #Gained at end of event chain
			NOT = { has_country_modifier = hoard_bank_reform }
		}
		
		provinces_to_highlight = {
		}
		
		allow = {
			adm_power = 150
		}
		
		effect = {
			add_years_of_income = -1
			add_adm_power = -150
			add_inflation = -10
			add_country_modifier = {
				name = hoard_bank_reform
				duration = -1
			}
			hidden_effect = { clr_country_flag = hoardcurse_reforming }
			hidden_effect = {
				change_variable = {
					which = variable:reformsHoard
					value = 1
				}
			}
		}
		
		ai_will_do = {
			factor = 400
		}
	}
	
	##########
	#Bank Decisions
	##########
	bring_down_monopolies = {
		major = yes
		potential = {
			has_disaster = hoardcurse
			NOT = { has_country_flag = hoardcurse_reforming }
			NOT = { has_country_modifier = hoard_monopolies_reform }
		}
		
		provinces_to_highlight = {
		}
		
		allow = {
			NOT = { ruler_has_personality = greedy_personality }
		}
		
		effect = {
			custom_tooltip = hoard_monopolies_reform_tooltip
			hidden_effect = { 
				set_country_flag = hoardcurse_reforming
				country_event = { id = hoardcurse.13 }
			}
		}
		
		ai_will_do = {
			factor = 400
		}
	}
	
	regulating_merchants_cartel = {
		major = yes
		potential = {
			has_disaster = hoardcurse
			has_country_flag = hoard_monopolies_reform #Gained at end of event chain
			NOT = { has_country_modifier = hoard_monopolies_reform }
		}
		
		provinces_to_highlight = {
		}
		
		allow = {
			adm_power = 150
		}
		
		effect = {
			add_years_of_income = -1
			add_adm_power = -150
			add_country_modifier = {
				name = hoard_monopolies_reform
				duration = -1
			}
			hidden_effect = { clr_country_flag = hoardcurse_reforming }
			hidden_effect = {
				change_variable = {
					which = variable:reformsHoard
					value = 1
				}
			}
		}
		
		ai_will_do = {
			factor = 400
		}
	}
	##########
	#Workers, not slave
	##########
	workers_not_slaves = {
		major = yes
		potential = {
			has_disaster = hoardcurse
			NOT = { has_country_flag = hoardcurse_reforming }
			NOT = { has_country_modifier = hoard_contract_reform }
		}
		
		provinces_to_highlight = {
		}
		
		allow = {
			NOT = { ruler_has_personality = greedy_personality }
		}
		
		effect = {
			custom_tooltip = hoard_contract_reform_tooltip
			hidden_effect = { 
				set_country_flag = hoardcurse_reforming
				country_event = { id = hoardcurse.17 }
			}
		}
		
		ai_will_do = {
			factor = 400
		}
	}
	
	prohibit_slaves_contract = {
		major = yes
		potential = {
			has_disaster = hoardcurse
			has_country_flag = hoard_contract_reform #Gained at end of event chain
			NOT = { has_country_modifier = hoard_contract_reform }
		}
		
		provinces_to_highlight = {
		}
		
		allow = {
			adm_power = 150
		}
		
		effect = {
			add_years_of_income = -1
			add_adm_power = -150
			add_country_modifier = {
				name = hoard_contract_reform
				duration = -1
			}
			hidden_effect = { clr_country_flag = hoardcurse_reforming }
			hidden_effect = {
				change_variable = {
					which = variable:reformsHoard
					value = 1
				}
			}
		}
		
		ai_will_do = {
			factor = 400
		}
	}
	#######
	#Curtail the bastards
	#######
	curtailing_the_hoardcursed  = {
		major = yes
		potential = {
			has_disaster = hoardcurse
			NOT = { has_country_flag = open_great_reform_menu }
			NOT = { has_country_flag = hoardcurse_reforming }
			NOT = { has_country_modifier = curtail_reform }
		}
		
		provinces_to_highlight = {
		}
		
		allow = {
			NOT = { ruler_has_personality = greedy_personality }
		}
		
		effect = {
			custom_tooltip = curtail_reform_tooltip
			country_event = { id = hoardcurse.21 }
			hidden_effect = { 
				set_country_flag = open_great_reform_menu
			}
		}
		
		ai_will_do = {
			factor = 400
			
			modifier = {
				factor = 0
				
				NOT = {
					check_variable = {
						which = variable:reformsHoard
						value = 4
					}
				}
			}
		}
	}
}
