country_decisions = {

	esmarian_nation = {
		major = yes
		potential = {
			OR = {
				primary_culture = esmari
			}
			NOT = { has_country_flag = formed_esmaria_flag }
			NOT = { tag = Z01 } #Empire of Anbennar
			OR = {
				ai = no
				NOT = { exists = Z46 }
			}
			is_colonial_nation = no
			OR = {
				is_former_colonial_nation = no
				AND = {
					is_former_colonial_nation = yes
					ai = no
				}
			}
			normal_or_historical_nations = yes
			was_never_end_game_tag_trigger = yes
		}
		provinces_to_highlight = {
			OR = {
				province_id = 266
				region = esmaria_region
			}
			OR = {
				NOT = { owned_by = ROOT }
				NOT = { is_core = ROOT }
			}
		}
		allow = {
			is_at_war = no
			is_free_or_tributary_trigger = yes
			is_nomad = no		
			adm_tech = 10
			NOT = { exists = Z46 }
			owns_core_province = 266	# Esmaraine
			num_of_owned_provinces_with = {
				value = 27
				region = esmaria_region
			}
		}
		effect = {
			266 = { #Esmaraine
				move_capital_effect = yes
			}
			change_tag = Z46
			swap_non_generic_missions = yes
			#remove_non_electors_emperors_from_empire_effect = yes
			if = {
				limit = {
					NOT = { government_rank = 2 }
				}
				set_government_rank = 2
			}
			
			esmaria_region = {
				limit = {
					NOT = { owned_by = ROOT }
				}
				add_permanent_claim = Z46
			}
			
			add_country_modifier = {
				name = "centralization_modifier"
				duration = 7300
			}
			add_prestige = 10
			if = {
				limit = {
					has_custom_ideas = no
				}
				country_event = { id = ideagroups.1 } #Swap Ideas
			}
			set_country_flag = formed_esmaria_flag
			set_country_flag = is_a_grand_duchy
		}
		ai_will_do = {
			factor = 1
		}
	}
	
}