country_decisions = {
	
	reform_roilsard_decision = {
		major = yes
		potential = {
			primary_culture = roilsardi
			normal_or_historical_nations = yes
			was_never_end_game_tag_trigger = yes
			NOT = { has_country_flag = formed_roilsard_flag }
			OR = {
				ai = no
				is_playing_custom_nation = no
			}
			NOT = { tag = A78 }
			OR = {
				ai = no
				NOT = { exists = A78 }
			}
			is_colonial_nation = no
			OR = {
				is_former_colonial_nation = no
				AND = {
					is_former_colonial_nation = yes
					ai = no
				}
			}
		}
		provinces_to_highlight = {
			OR = {
				province_id = 59
				province_id = 33
				province_id = 32
				province_id = 34
				province_id = 40
			}
			OR = {
				NOT = { owned_by = ROOT }
				NOT = { is_core = ROOT }
			}
		}
		allow = {
			owns_core_province = 59
			owns_core_province = 33
			owns_core_province = 32
			owns_core_province = 34
			owns_core_province = 40
			
			is_at_war = no
			is_free_or_tributary_trigger = yes
			is_nomad = no			
			NOT = { exists = A78 }
		}
		effect = {
			change_tag = A78
			swap_non_generic_missions = yes
			remove_non_electors_emperors_from_empire_effect = yes
			hidden_effect = {
				clr_country_flag = is_a_county
			}
			59 = {	#To Roilsard
				move_capital_effect = yes
			}
			
			add_country_modifier = {
				name = "centralization_modifier"
				duration = 7300
			}
			
			add_prestige = 25
			if = {
				limit = {
					has_custom_ideas = no
					OR = {
						ai = no
						AND = {
							ai = yes
							has_idea_group = default_ideas
						}
					}
				}
				country_event = { id = ideagroups.1 } #Swap Ideas
			}
			set_country_flag = formed_roilsard_flag
		}
		ai_will_do = {
			factor = 1
			modifier = {
				factor = 0
				ruler_has_personality = babbling_buffoon_personality
			}
			modifier = {
				factor = 0
				ruler_has_personality = craven_personality
			}
			modifier = {
				factor = 0
				ruler_has_personality = careful_personality
			}
		}
			
	}
	
}