
namespace = flavor_barumand

#Grand Gathering
country_event = {
	id = flavor_barumand.1
	title = flavor_barumand.1.t
	desc = flavor_barumand.1.d
	picture = FORT_eventPicture
	
	is_triggered_only = yes
	
	trigger = {
		always = yes
	}
	
	#Focus on administrative issues
	option = {
		name = flavor_barumand.1.a
		ai_chance = {
			factor = 50
		}
		add_adm_power = 300
		add_dip_power = 100
		add_mil_power = 100
	}
	
	#Focus on trade issues
	option = {
		name = flavor_barumand.1.b
		ai_chance = {
			factor = 25 
		}
		add_adm_power = 100
		add_dip_power = 300
		add_mil_power = 100
	}
	
	#Focus on war issues
	option = {
		name = flavor_barumand.1.c
		ai_chance = {
			factor = 25 
		}
		add_adm_power = 100
		add_dip_power = 100
		add_mil_power = 300
	}
}
