namespace = kobold_tolerance_events

country_event = {
	id = kobold_tolerance_events.1
	title = kobold_tolerance_events.1.t
	desc = kobold_tolerance_events.1.d
	picture = BORDER_TENSION_eventPicture
	
	is_triggered_only = yes
	
	trigger = {
		NOT = { culture_group = kobold }
		any_owned_province = {
			NOT = { has_province_modifier = kobold_bands_recruited }
			NOT = { has_province_modifier = kobold_scared_into_submission }
			NOT = { has_province_modifier = kobold_angered_by_attempts_to_submit }
			has_kobold_minority_trigger = yes
		}
	}
	
	mean_time_to_happen = {
		days = 1
	}
	
	immediate = {
		hidden_effect = {
			random_owned_province = {
				limit = {
					NOT = { has_province_modifier = kobold_bands_recruited }
					NOT = { has_province_modifier = kobold_scared_into_submission }
					NOT = { has_province_modifier = kobold_angered_by_attempts_to_submit }
					has_kobold_minority_trigger = yes
				}
				save_event_target_as = kobold_causing_havoc_province
			}
			random_owned_province = {
				limit = {
					NOT = { has_province_modifier = kobold_bands_recruited }
					NOT = { has_province_modifier = kobold_scared_into_submission }
					NOT = { has_province_modifier = kobold_angered_by_attempts_to_submit }
					has_kobold_minority_trigger = yes
					local_autonomy = 25
				}
				save_event_target_as = kobold_causing_havoc_province
			}
		}
	}
	
	option = {	# Scare them into submission
		name = kobold_tolerance_events.1.a
		ai_chance = {
			factor = 50
			modifier = {
				factor = 0.8
				NOT = { manpower_percentage = 0.4 }
			}
			modifier = {
				factor = 0.5
				ai_equal_to_wanted_tolerance_kobold = yes
			}
			modifier = {
				factor = 0.1
				ai_lower_than_wanted_tolerance_kobold = yes
			}
		}
		add_mil_power = -25
		if = {
			limit = {
				max_manpower = 25
			}
			add_manpower = -1
		}
		if = {
			limit = {
				NOT = { max_manpower = 25 }
			}
			add_yearly_manpower = -0.4
		}
		small_decrease_of_kobold_tolerance_effect = yes
		event_target:kobold_causing_havoc_province = {
			area = {
				limit = {
					NOT = { has_province_modifier = kobold_bands_recruited }
					NOT = { has_province_modifier = kobold_scared_into_submission }
					NOT = { has_province_modifier = kobold_angered_by_attempts_to_submit }
					has_kobold_minority_trigger = yes
				}
				random_list = {
					80 = {
						add_province_modifier = {
							name = kobold_scared_into_submission
							duration = 1095
						}
					}
					20 = {
						add_province_modifier = {
							name = kobold_angered_by_attempts_to_submit
							duration = 1095
						}
					}
				}
			}
		}
	}
	
	option = {	# Swiftly enforce our will on them
		name = kobold_tolerance_events.1.b
		ai_chance = {
			factor = 50
			modifier = {
				factor = 0.8
				NOT = { manpower_percentage = 0.4 }
			}
		}
		add_mil_power = -20
		if = {
			limit = {
				max_manpower = 25
			}
			add_manpower = -1.25
		}
		if = {
			limit = {
				NOT = { max_manpower = 25 }
			}
			add_yearly_manpower = -0.5
		}
		event_target:kobold_causing_havoc_province = {
			area = {
				limit = {
					NOT = { has_province_modifier = kobold_bands_recruited }
					NOT = { has_province_modifier = kobold_scared_into_submission }
					NOT = { has_province_modifier = kobold_angered_by_attempts_to_submit }
					has_kobold_minority_trigger = yes
				}
				add_province_modifier = {
					name = kobold_angered_by_attempts_to_submit
					duration = 1825
				}
			}
		}
	}
	
	option = {	# Recruit these brave souls
		name = kobold_tolerance_events.1.c
		ai_chance = {
			factor = 50
			modifier = {
				factor = 0.8
				NOT = { years_of_income = 0.5 }
			}
			modifier = {
				factor = 0.5
				ai_equal_to_wanted_tolerance_kobold = yes
			}
			modifier = {
				factor = 0.1
				ai_higher_than_wanted_tolerance_kobold = yes
			}
		}
		add_prestige = -10
		if = {
			limit = { NOT = { monthly_income = 20 } }
			add_years_of_income = -0.25
		}
		if = {
			limit = { monthly_income = 20 }
			add_treasury = -60
		}
		add_yearly_manpower = 0.025
		small_increase_of_kobold_tolerance_effect = yes
		event_target:kobold_causing_havoc_province = {
			area = {
				limit = {
					NOT = { has_province_modifier = kobold_bands_recruited }
					NOT = { has_province_modifier = kobold_scared_into_submission }
					NOT = { has_province_modifier = kobold_angered_by_attempts_to_submit }
					has_kobold_minority_trigger = yes
				}
				add_province_modifier = {
					name = kobold_bands_recruited
					duration = 1825
				}
			}
		}
	}
}

country_event = {	# Similiar event to above, but sabotage recruitment rather than just causing havoc
	id = kobold_tolerance_events.2
	title = kobold_tolerance_events.2.t
	desc = kobold_tolerance_events.2.d
	picture = {
		trigger = {
			event_target:kobold_hindering_military_operations = {
				development = 20
			}
		}
		picture = SIEGE_eventPicture
	}
	picture = {
		trigger = {
			event_target:kobold_hindering_military_operations = {
				NOT = { development = 20 }
			}
		}
		picture = BORDER_TENSION_eventPicture
	}
	
	is_triggered_only = yes
	
	trigger = {
		NOT = { culture_group = kobold }
		is_at_war = yes
		any_owned_province = {
			NOT = { has_province_modifier = kobold_bands_punished_harshly }
			NOT = { has_province_modifier = kobold_bands_punished }
			NOT = { has_province_modifier = kobold_bands_not_punished }
			has_kobold_minority_trigger = yes
		}
	}
	
	mean_time_to_happen = {
		days = 1
	}
	
	immediate = {
		hidden_effect = {
			random_known_country = {
				limit = {
					war_with = ROOT
				}
				save_event_target_as = kobold_war_target_chance
			}
			random_known_country = {
				limit = {
					OR = {
						is_subject = no
						offensive_war_with = ROOT
					}
					war_with = ROOT
				}
				save_event_target_as = kobold_war_target_chance
			}
			random_known_country = {
				limit = {
					is_subject = no
					offensive_war_with = ROOT
				}
				save_event_target_as = kobold_war_target_chance
			}
			random_owned_province = {
				limit = {
					NOT = { has_province_modifier = kobold_bands_punished_harshly }
					NOT = { has_province_modifier = kobold_bands_punished }
					NOT = { has_province_modifier = kobold_bands_not_punished }
					has_kobold_minority_trigger = yes
				}
				save_event_target_as = kobold_hindering_military_operations
			}
			random_owned_province = {
				limit = {
					NOT = { has_province_modifier = kobold_bands_punished_harshly }
					NOT = { has_province_modifier = kobold_bands_punished }
					NOT = { has_province_modifier = kobold_bands_not_punished }
					has_kobold_minority_trigger = yes
					controlled_by = ROOT
				}
				save_event_target_as = kobold_hindering_military_operations
			}
			random_owned_province = {
				limit = {
					NOT = { has_province_modifier = kobold_bands_punished_harshly }
					NOT = { has_province_modifier = kobold_bands_punished }
					NOT = { has_province_modifier = kobold_bands_not_punished }
					has_kobold_minority_trigger = yes
					controlled_by = ROOT
					any_neighbor_province = {
						owner = { war_with = ROOT }
					}
				}
				save_event_target_as = kobold_hindering_military_operations
			}
		}
	}
	
	option = {	# Punish all of them!
		name = kobold_tolerance_events.2.a
		ai_chance = {
			factor = 50
			modifier = {
				factor = 1.2
				has_dlc = "The Cossacks"
				has_estate = estate_nobles
				NOT = {
					estate_loyalty = {
						estate = estate_nobles
						loyalty = 40
					}
				}
			}
			modifier = {
				factor = 0.8
				NOT = { manpower_percentage = 0.5 }
			}
			modifier = {
				factor = 0.5
				ai_equal_to_wanted_tolerance_kobold = yes
			}
			modifier = {
				factor = 0.1
				ai_lower_than_wanted_tolerance_kobold = yes
			}
		}
		add_prestige = 5
		add_legitimacy = 5
		if = {
			limit = { has_estate = estate_nobles }
			add_estate_loyalty = {
				estate = estate_nobles
				loyalty = 5
			}
		}
		if = {
			limit = {
				max_manpower = 25
			}
			add_manpower = -1.25
		}
		if = {
			limit = {
				NOT = { max_manpower = 25 }
			}
			add_yearly_manpower = -0.5
		}
		small_decrease_of_kobold_tolerance_effect = yes
		event_target:kobold_hindering_military_operations = {
			area = {
				limit = {
					NOT = { has_province_modifier = kobold_bands_punished_harshly }
					NOT = { has_province_modifier = kobold_bands_punished }
					NOT = { has_province_modifier = kobold_bands_not_punished }
					has_kobold_minority_trigger = yes
				}
				add_province_modifier = {
					name = kobold_bands_punished_harshly
					duration = 1825
				}
			}
		}
	}
	
	option = {	# Punish the Kobolds found guilty
		name = kobold_tolerance_events.2.b
		ai_chance = {
			factor = 50
			modifier = {
				factor = 0.8
				NOT = { manpower_percentage = 0.5 }
			}
		}
		if = {
			limit = {
				max_manpower = 25
			}
			add_manpower = -1
		}
		if = {
			limit = {
				NOT = { max_manpower = 25 }
			}
			add_yearly_manpower = -0.4
		}
		event_target:kobold_hindering_military_operations = {
			area = {
				limit = {
					NOT = { has_province_modifier = kobold_bands_punished_harshly }
					NOT = { has_province_modifier = kobold_bands_punished }
					NOT = { has_province_modifier = kobold_bands_not_punished }
					has_kobold_minority_trigger = yes
				}
				add_province_modifier = {
					name = kobold_bands_punished
					duration = 1825
				}
			}
		}
	}
	option = {	# Ignore them
		name = kobold_tolerance_events.2.c
		ai_chance = {
			factor = 50
			modifier = {
				factor = 0.5
				has_dlc = "The Cossacks"
				has_estate = estate_nobles
				NOT = {
					estate_loyalty = {
						estate = estate_nobles
						loyalty = 40
					}
				}
			}
		}
		add_prestige = -10
		if = {
			limit = { has_estate = estate_nobles }
			add_estate_loyalty = {
				estate = estate_nobles
				loyalty = -10
			}
		}
		event_target:kobold_hindering_military_operations = {
			area = {
				limit = {
					NOT = { has_province_modifier = kobold_bands_punished_harshly }
					NOT = { has_province_modifier = kobold_bands_punished }
					NOT = { has_province_modifier = kobold_bands_not_punished }
					has_kobold_minority_trigger = yes
				}
				add_province_modifier = {
					name = kobold_bands_not_punished
					duration = 1825
				}
			}
		}
	}
	option = {	# Maybe they can be recruited?
		name = kobold_tolerance_events.2.e
		trigger = { MIL = 2 }
		ai_chance = {
			factor = 50
			modifier = {
				factor = 0.5
				has_dlc = "The Cossacks"
				has_estate = estate_nobles
				NOT = {
					estate_loyalty = {
						estate = estate_nobles
						loyalty = 50
					}
				}
			}
			modifier = {
				factor = 0.5
				ai_equal_to_wanted_tolerance_kobold = yes
			}
			modifier = {
				factor = 0.1
				ai_higher_than_wanted_tolerance_kobold = yes
			}
		}
		add_prestige = -15
		if = {
			limit = { has_estate = estate_nobles }
			add_estate_loyalty = {
				estate = estate_nobles
				loyalty = -15
			}
		}
		add_years_of_income = -0.1
		add_yearly_manpower = 0.15
		small_increase_of_kobold_tolerance_effect = yes
		event_target:kobold_hindering_military_operations = {
			area = {
				limit = {
					NOT = { has_province_modifier = kobold_bands_punished_harshly }
					NOT = { has_province_modifier = kobold_bands_punished }
					NOT = { has_province_modifier = kobold_bands_not_punished }
					has_kobold_minority_trigger = yes
				}
				add_province_modifier = {
					name = kobold_bands_not_punished
					duration = 1825
				}
			}
		}
	}
}

country_event = {
	id = kobold_tolerance_events.3
	title = kobold_tolerance_events.3.t
	desc = kobold_tolerance_events.3.d
	picture = ACCUSATION_eventPicture
	
	is_triggered_only = yes
	
	trigger = {
		NOT = { culture_group = kobold }
		any_owned_province = {
			NOT = { has_province_modifier = kobold_prefered_before_administration }
			NOT = { has_province_modifier = kobold_treated_unfairly }
			has_kobold_minority_trigger = yes
		}
	}
	
	mean_time_to_happen = {
		days = 1
	}
	
	immediate = {
		hidden_effect = {
			random_owned_province = {
				limit = {
					NOT = { has_province_modifier = kobold_prefered_before_administration }
					NOT = { has_province_modifier = kobold_treated_unfairly }
					has_kobold_minority_trigger = yes
				}
				save_event_target_as = kobold_treated_unfairly_province
			}
		}
	}
	
	option = {	# Drive out the Kobolds
		name = kobold_tolerance_events.3.a
		ai_chance = {
			factor = 50
			modifier = {
				factor = 0.5
				ai_equal_to_wanted_tolerance_kobold = yes
			}
			modifier = {
				factor = 0.1
				ai_lower_than_wanted_tolerance_kobold = yes
			}
		}
		add_mil_power = -15
		if = {
			limit = {
				max_manpower = 50
			}
			add_manpower = -1
		}
		if = {
			limit = {
				NOT = { max_manpower = 50 }
			}
			add_yearly_manpower = -0.2
		}
		small_decrease_of_kobold_tolerance_effect = yes
		event_target:kobold_treated_unfairly_province = {
			add_local_autonomy = -5
			add_province_modifier = {
				name = kobold_treated_unfairly
				duration = 3650
			}
		}
	}
	
	option = {	# Let them sort it out
		name = kobold_tolerance_events.3.b
		ai_chance = {
			factor = 50
			modifier = {
				factor = 0.5
				NOT = { prestige = -50 }
			}
		}
		add_prestige = -5
		event_target:kobold_treated_unfairly_province = {
			add_province_modifier = {
				name = kobold_treated_unfairly
				duration = 1825
			}
		}
	}
	
	option = {	# These lands belong to them!
		name = kobold_tolerance_events.3.c
		ai_chance = {
			factor = 50
			modifier = {
				factor = 0.8
				government = monarchy
				NOT = { legitimacy = 50 }
			}
			modifier = {
				factor = 0.5
				NOT = { prestige = -25 }
			}
			modifier = {
				factor = 0.5
				ai_equal_to_wanted_tolerance_kobold = yes
			}
			modifier = {
				factor = 0.1
				ai_higher_than_wanted_tolerance_kobold = yes
			}
		}
		add_adm_power = -10
		add_prestige = -10
		add_legitimacy = -5
		small_increase_of_kobold_tolerance_effect = yes
		event_target:kobold_treated_unfairly_province = {
			add_province_modifier = {
				name = kobold_prefered_before_administration
				duration = 3650
			}
		}
	}
	option = {	# Let them sort it out
		name = kobold_tolerance_events.3.b
		ai_chance = {
			factor = 50
			modifier = {
				factor = 0.5
				NOT = { prestige = -50 }
			}
		}
		add_prestige = -5
		event_target:kobold_treated_unfairly_province = {
			add_province_modifier = {
				name = kobold_treated_unfairly
				duration = 1825
			}
		}
	}
	option = {	# Their land are is my protection now
		name = kobold_tolerance_events.3.e
		trigger = { ruler_has_personality = righteous_personality }
		required_personality = righteous_personality
		highlight = yes
		ai_chance = {
			factor = 100
			modifier = {
				factor = 0.8
				government = monarchy
				NOT = { legitimacy = 50 }
			}
			modifier = {
				factor = 0.5
				ai_equal_to_wanted_tolerance_kobold = yes
			}
			modifier = {
				factor = 0.1
				ai_higher_than_wanted_tolerance_kobold = yes
			}
		}
		add_mil_power = -15
		add_dip_power = -15
		add_legitimacy = -5
		custom_tooltip = protected_kobold_land_righteous_tt
		medium_increase_of_kobold_tolerance_effect = yes
		event_target:kobold_treated_unfairly_province = {
			add_local_autonomy = 5
			add_province_modifier = {
				name = kobold_prefered_before_administration
				duration = 3650
			}
		}
	}
}